<svg xmlns="http://www.w3.org/2000/svg" width="60" height="60" viewBox="0 0 60 60">
    <path fill="#5E607F" fill-rule="nonzero" d="M7.5 0h45A7.5 7.5 0 0 1 60 7.5v45a7.5 7.5 0 0 1-7.5 7.5h-45A7.5 7.5 0 0 1 0 52.5v-45A7.5 7.5 0 0 1 7.5 0zm0 5A2.5 2.5 0 0 0 5 7.5v45A2.5 2.5 0 0 0 7.5 55h45a2.5 2.5 0 0 0 2.5-2.5v-45A2.5 2.5 0 0 0 52.5 5h-45zm9.66 43.76a2.5 2.5 0 0 1-4.32-2.52c6.303-10.804 14.144-18.645 23.517-23.463a2.5 2.5 0 1 1 2.286 4.446c-8.481 4.36-15.64 11.52-21.484 21.537zm22.428-6.672c-7.851 7.852-18.973 10.442-28.981 7.77-2.673-10.01-.084-21.13 7.768-28.983 7.852-7.852 18.974-10.441 28.982-7.768 2.673 10.008.083 21.13-7.769 28.981zM21.911 24.411a24.967 24.967 0 0 0-7.074 21.216 24.967 24.967 0 0 0 21.216-7.074 24.967 24.967 0 0 0 7.074-21.216A24.967 24.967 0 0 0 21.91 24.41z"/>
</svg>
