<svg class="lds-spin" width="100%" height="100%" xmlns="http://www.w3.org/2000/svg" xmlns:xlink="http://www.w3.org/1999/xlink" viewBox="0 0 100 100" preserveAspectRatio="xMidYMid"><g transform="translate(80,50)">
<g transform="rotate(0)">
<circle cx="0" cy="0" r="0.5" fill="#xxx" fill-opacity="1" transform="scale(2.15 2.15)">
  <animateTransform attributeName="transform" type="scale" begin="-0.9666666666666667s" values="4 4;1 1" keyTimes="0;1" dur="1s" repeatCount="indefinite"></animateTransform>
  <animate attributeName="fill-opacity" keyTimes="0;1" dur="1s" repeatCount="indefinite" values="1;0" begin="-0.9666666666666667s"></animate>
</circle>
</g>
</g><g transform="translate(79.34442802201417,56.23735072453278)">
<g transform="rotate(12)">
<circle cx="0" cy="0" r="0.5" fill="#xxx" fill-opacity="0.9666666666666667" transform="scale(2.25 2.25)">
  <animateTransform attributeName="transform" type="scale" begin="-0.9333333333333333s" values="4 4;1 1" keyTimes="0;1" dur="1s" repeatCount="indefinite"></animateTransform>
  <animate attributeName="fill-opacity" keyTimes="0;1" dur="1s" repeatCount="indefinite" values="1;0" begin="-0.9333333333333333s"></animate>
</circle>
</g>
</g><g transform="translate(77.40636372927803,62.202099292274006)">
<g transform="rotate(24)">
<circle cx="0" cy="0" r="0.5" fill="#xxx" fill-opacity="0.9333333333333333" transform="scale(2.35 2.35)">
  <animateTransform attributeName="transform" type="scale" begin="-0.9s" values="4 4;1 1" keyTimes="0;1" dur="1s" repeatCount="indefinite"></animateTransform>
  <animate attributeName="fill-opacity" keyTimes="0;1" dur="1s" repeatCount="indefinite" values="1;0" begin="-0.9s"></animate>
</circle>
</g>
</g><g transform="translate(74.27050983124843,67.6335575687742)">
<g transform="rotate(36)">
<circle cx="0" cy="0" r="0.5" fill="#xxx" fill-opacity="0.9" transform="scale(2.45 2.45)">
  <animateTransform attributeName="transform" type="scale" begin="-0.8666666666666667s" values="4 4;1 1" keyTimes="0;1" dur="1s" repeatCount="indefinite"></animateTransform>
  <animate attributeName="fill-opacity" keyTimes="0;1" dur="1s" repeatCount="indefinite" values="1;0" begin="-0.8666666666666667s"></animate>
</circle>
</g>
</g><g transform="translate(70.07391819076574,72.29434476432183)">
<g transform="rotate(48)">
<circle cx="0" cy="0" r="0.5" fill="#xxx" fill-opacity="0.8666666666666667" transform="scale(2.55 2.55)">
  <animateTransform attributeName="transform" type="scale" begin="-0.8333333333333334s" values="4 4;1 1" keyTimes="0;1" dur="1s" repeatCount="indefinite"></animateTransform>
  <animate attributeName="fill-opacity" keyTimes="0;1" dur="1s" repeatCount="indefinite" values="1;0" begin="-0.8333333333333334s"></animate>
</circle>
</g>
</g><g transform="translate(65,75.98076211353316)">
<g transform="rotate(59.99999999999999)">
<circle cx="0" cy="0" r="0.5" fill="#xxx" fill-opacity="0.8333333333333334" transform="scale(2.65 2.65)">
  <animateTransform attributeName="transform" type="scale" begin="-0.8s" values="4 4;1 1" keyTimes="0;1" dur="1s" repeatCount="indefinite"></animateTransform>
  <animate attributeName="fill-opacity" keyTimes="0;1" dur="1s" repeatCount="indefinite" values="1;0" begin="-0.8s"></animate>
</circle>
</g>
</g><g transform="translate(59.270509831248425,78.53169548885461)">
<g transform="rotate(72)">
<circle cx="0" cy="0" r="0.5" fill="#xxx" fill-opacity="0.8" transform="scale(2.75 2.75)">
  <animateTransform attributeName="transform" type="scale" begin="-0.7666666666666667s" values="4 4;1 1" keyTimes="0;1" dur="1s" repeatCount="indefinite"></animateTransform>
  <animate attributeName="fill-opacity" keyTimes="0;1" dur="1s" repeatCount="indefinite" values="1;0" begin="-0.7666666666666667s"></animate>
</circle>
</g>
</g><g transform="translate(53.1358538980296,79.8356568610482)">
<g transform="rotate(84)">
<circle cx="0" cy="0" r="0.5" fill="#xxx" fill-opacity="0.7666666666666667" transform="scale(2.85 2.85)">
  <animateTransform attributeName="transform" type="scale" begin="-0.7333333333333333s" values="4 4;1 1" keyTimes="0;1" dur="1s" repeatCount="indefinite"></animateTransform>
  <animate attributeName="fill-opacity" keyTimes="0;1" dur="1s" repeatCount="indefinite" values="1;0" begin="-0.7333333333333333s"></animate>
</circle>
</g>
</g><g transform="translate(46.8641461019704,79.83565686104821)">
<g transform="rotate(96)">
<circle cx="0" cy="0" r="0.5" fill="#xxx" fill-opacity="0.7333333333333333" transform="scale(2.95 2.95)">
  <animateTransform attributeName="transform" type="scale" begin="-0.7s" values="4 4;1 1" keyTimes="0;1" dur="1s" repeatCount="indefinite"></animateTransform>
  <animate attributeName="fill-opacity" keyTimes="0;1" dur="1s" repeatCount="indefinite" values="1;0" begin="-0.7s"></animate>
</circle>
</g>
</g><g transform="translate(40.72949016875158,78.53169548885461)">
<g transform="rotate(108)">
<circle cx="0" cy="0" r="0.5" fill="#xxx" fill-opacity="0.7" transform="scale(3.05 3.05)">
  <animateTransform attributeName="transform" type="scale" begin="-0.6666666666666666s" values="4 4;1 1" keyTimes="0;1" dur="1s" repeatCount="indefinite"></animateTransform>
  <animate attributeName="fill-opacity" keyTimes="0;1" dur="1s" repeatCount="indefinite" values="1;0" begin="-0.6666666666666666s"></animate>
</circle>
</g>
</g><g transform="translate(35.00000000000001,75.98076211353316)">
<g transform="rotate(119.99999999999999)">
<circle cx="0" cy="0" r="0.5" fill="#xxx" fill-opacity="0.6666666666666666" transform="scale(3.15 3.15)">
  <animateTransform attributeName="transform" type="scale" begin="-0.6333333333333333s" values="4 4;1 1" keyTimes="0;1" dur="1s" repeatCount="indefinite"></animateTransform>
  <animate attributeName="fill-opacity" keyTimes="0;1" dur="1s" repeatCount="indefinite" values="1;0" begin="-0.6333333333333333s"></animate>
</circle>
</g>
</g><g transform="translate(29.92608180923426,72.29434476432183)">
<g transform="rotate(132)">
<circle cx="0" cy="0" r="0.5" fill="#xxx" fill-opacity="0.6333333333333333" transform="scale(3.25 3.25)">
  <animateTransform attributeName="transform" type="scale" begin="-0.6s" values="4 4;1 1" keyTimes="0;1" dur="1s" repeatCount="indefinite"></animateTransform>
  <animate attributeName="fill-opacity" keyTimes="0;1" dur="1s" repeatCount="indefinite" values="1;0" begin="-0.6s"></animate>
</circle>
</g>
</g><g transform="translate(25.72949016875158,67.6335575687742)">
<g transform="rotate(144)">
<circle cx="0" cy="0" r="0.5" fill="#xxx" fill-opacity="0.6" transform="scale(3.35 3.35)">
  <animateTransform attributeName="transform" type="scale" begin="-0.5666666666666667s" values="4 4;1 1" keyTimes="0;1" dur="1s" repeatCount="indefinite"></animateTransform>
  <animate attributeName="fill-opacity" keyTimes="0;1" dur="1s" repeatCount="indefinite" values="1;0" begin="-0.5666666666666667s"></animate>
</circle>
</g>
</g><g transform="translate(22.59363627072197,62.202099292274)">
<g transform="rotate(156)">
<circle cx="0" cy="0" r="0.5" fill="#xxx" fill-opacity="0.5666666666666667" transform="scale(3.45 3.45)">
  <animateTransform attributeName="transform" type="scale" begin="-0.5333333333333333s" values="4 4;1 1" keyTimes="0;1" dur="1s" repeatCount="indefinite"></animateTransform>
  <animate attributeName="fill-opacity" keyTimes="0;1" dur="1s" repeatCount="indefinite" values="1;0" begin="-0.5333333333333333s"></animate>
</circle>
</g>
</g><g transform="translate(20.65557197798583,56.23735072453278)">
<g transform="rotate(168)">
<circle cx="0" cy="0" r="0.5" fill="#xxx" fill-opacity="0.5333333333333333" transform="scale(3.55 3.55)">
  <animateTransform attributeName="transform" type="scale" begin="-0.5s" values="4 4;1 1" keyTimes="0;1" dur="1s" repeatCount="indefinite"></animateTransform>
  <animate attributeName="fill-opacity" keyTimes="0;1" dur="1s" repeatCount="indefinite" values="1;0" begin="-0.5s"></animate>
</circle>
</g>
</g><g transform="translate(20,50.000000000000014)">
<g transform="rotate(179.99999999999997)">
<circle cx="0" cy="0" r="0.5" fill="#xxx" fill-opacity="0.5" transform="scale(3.65 3.65)">
  <animateTransform attributeName="transform" type="scale" begin="-0.4666666666666667s" values="4 4;1 1" keyTimes="0;1" dur="1s" repeatCount="indefinite"></animateTransform>
  <animate attributeName="fill-opacity" keyTimes="0;1" dur="1s" repeatCount="indefinite" values="1;0" begin="-0.4666666666666667s"></animate>
</circle>
</g>
</g><g transform="translate(20.65557197798583,43.762649275467226)">
<g transform="rotate(192)">
<circle cx="0" cy="0" r="0.5" fill="#xxx" fill-opacity="0.4666666666666667" transform="scale(3.75 3.75)">
  <animateTransform attributeName="transform" type="scale" begin="-0.43333333333333335s" values="4 4;1 1" keyTimes="0;1" dur="1s" repeatCount="indefinite"></animateTransform>
  <animate attributeName="fill-opacity" keyTimes="0;1" dur="1s" repeatCount="indefinite" values="1;0" begin="-0.43333333333333335s"></animate>
</circle>
</g>
</g><g transform="translate(22.593636270721973,37.797900707725994)">
<g transform="rotate(204)">
<circle cx="0" cy="0" r="0.5" fill="#xxx" fill-opacity="0.43333333333333335" transform="scale(3.85 3.85)">
  <animateTransform attributeName="transform" type="scale" begin="-0.4s" values="4 4;1 1" keyTimes="0;1" dur="1s" repeatCount="indefinite"></animateTransform>
  <animate attributeName="fill-opacity" keyTimes="0;1" dur="1s" repeatCount="indefinite" values="1;0" begin="-0.4s"></animate>
</circle>
</g>
</g><g transform="translate(25.729490168751575,32.366442431225806)">
<g transform="rotate(216)">
<circle cx="0" cy="0" r="0.5" fill="#xxx" fill-opacity="0.4" transform="scale(3.95 3.95)">
  <animateTransform attributeName="transform" type="scale" begin="-0.36666666666666664s" values="4 4;1 1" keyTimes="0;1" dur="1s" repeatCount="indefinite"></animateTransform>
  <animate attributeName="fill-opacity" keyTimes="0;1" dur="1s" repeatCount="indefinite" values="1;0" begin="-0.36666666666666664s"></animate>
</circle>
</g>
</g><g transform="translate(29.926081809234248,27.70565523567818)">
<g transform="rotate(228)">
<circle cx="0" cy="0" r="0.5" fill="#xxx" fill-opacity="0.36666666666666664" transform="scale(1.05 1.05)">
  <animateTransform attributeName="transform" type="scale" begin="-0.3333333333333333s" values="4 4;1 1" keyTimes="0;1" dur="1s" repeatCount="indefinite"></animateTransform>
  <animate attributeName="fill-opacity" keyTimes="0;1" dur="1s" repeatCount="indefinite" values="1;0" begin="-0.3333333333333333s"></animate>
</circle>
</g>
</g><g transform="translate(34.999999999999986,24.019237886466847)">
<g transform="rotate(239.99999999999997)">
<circle cx="0" cy="0" r="0.5" fill="#xxx" fill-opacity="0.3333333333333333" transform="scale(1.15 1.15)">
  <animateTransform attributeName="transform" type="scale" begin="-0.3s" values="4 4;1 1" keyTimes="0;1" dur="1s" repeatCount="indefinite"></animateTransform>
  <animate attributeName="fill-opacity" keyTimes="0;1" dur="1s" repeatCount="indefinite" values="1;0" begin="-0.3s"></animate>
</circle>
</g>
</g><g transform="translate(40.729490168751575,21.468304511145394)">
<g transform="rotate(252)">
<circle cx="0" cy="0" r="0.5" fill="#xxx" fill-opacity="0.3" transform="scale(1.25 1.25)">
  <animateTransform attributeName="transform" type="scale" begin="-0.26666666666666666s" values="4 4;1 1" keyTimes="0;1" dur="1s" repeatCount="indefinite"></animateTransform>
  <animate attributeName="fill-opacity" keyTimes="0;1" dur="1s" repeatCount="indefinite" values="1;0" begin="-0.26666666666666666s"></animate>
</circle>
</g>
</g><g transform="translate(46.86414610197037,20.1643431389518)">
<g transform="rotate(264)">
<circle cx="0" cy="0" r="0.5" fill="#xxx" fill-opacity="0.26666666666666666" transform="scale(1.35 1.35)">
  <animateTransform attributeName="transform" type="scale" begin="-0.23333333333333334s" values="4 4;1 1" keyTimes="0;1" dur="1s" repeatCount="indefinite"></animateTransform>
  <animate attributeName="fill-opacity" keyTimes="0;1" dur="1s" repeatCount="indefinite" values="1;0" begin="-0.23333333333333334s"></animate>
</circle>
</g>
</g><g transform="translate(53.13585389802959,20.164343138951796)">
<g transform="rotate(275.99999999999994)">
<circle cx="0" cy="0" r="0.5" fill="#xxx" fill-opacity="0.23333333333333334" transform="scale(1.45 1.45)">
  <animateTransform attributeName="transform" type="scale" begin="-0.2s" values="4 4;1 1" keyTimes="0;1" dur="1s" repeatCount="indefinite"></animateTransform>
  <animate attributeName="fill-opacity" keyTimes="0;1" dur="1s" repeatCount="indefinite" values="1;0" begin="-0.2s"></animate>
</circle>
</g>
</g><g transform="translate(59.27050983124842,21.46830451114539)">
<g transform="rotate(288)">
<circle cx="0" cy="0" r="0.5" fill="#xxx" fill-opacity="0.2" transform="scale(1.55 1.55)">
  <animateTransform attributeName="transform" type="scale" begin="-0.16666666666666666s" values="4 4;1 1" keyTimes="0;1" dur="1s" repeatCount="indefinite"></animateTransform>
  <animate attributeName="fill-opacity" keyTimes="0;1" dur="1s" repeatCount="indefinite" values="1;0" begin="-0.16666666666666666s"></animate>
</circle>
</g>
</g><g transform="translate(65,24.019237886466843)">
<g transform="rotate(300.00000000000006)">
<circle cx="0" cy="0" r="0.5" fill="#xxx" fill-opacity="0.16666666666666666" transform="scale(1.65 1.65)">
  <animateTransform attributeName="transform" type="scale" begin="-0.13333333333333333s" values="4 4;1 1" keyTimes="0;1" dur="1s" repeatCount="indefinite"></animateTransform>
  <animate attributeName="fill-opacity" keyTimes="0;1" dur="1s" repeatCount="indefinite" values="1;0" begin="-0.13333333333333333s"></animate>
</circle>
</g>
</g><g transform="translate(70.07391819076575,27.70565523567818)">
<g transform="rotate(312)">
<circle cx="0" cy="0" r="0.5" fill="#xxx" fill-opacity="0.13333333333333333" transform="scale(1.75 1.75)">
  <animateTransform attributeName="transform" type="scale" begin="-0.1s" values="4 4;1 1" keyTimes="0;1" dur="1s" repeatCount="indefinite"></animateTransform>
  <animate attributeName="fill-opacity" keyTimes="0;1" dur="1s" repeatCount="indefinite" values="1;0" begin="-0.1s"></animate>
</circle>
</g>
</g><g transform="translate(74.27050983124842,32.3664424312258)">
<g transform="rotate(324)">
<circle cx="0" cy="0" r="0.5" fill="#xxx" fill-opacity="0.1" transform="scale(1.85 1.85)">
  <animateTransform attributeName="transform" type="scale" begin="-0.06666666666666667s" values="4 4;1 1" keyTimes="0;1" dur="1s" repeatCount="indefinite"></animateTransform>
  <animate attributeName="fill-opacity" keyTimes="0;1" dur="1s" repeatCount="indefinite" values="1;0" begin="-0.06666666666666667s"></animate>
</circle>
</g>
</g><g transform="translate(77.40636372927803,37.797900707725994)">
<g transform="rotate(336)">
<circle cx="0" cy="0" r="0.5" fill="#xxx" fill-opacity="0.06666666666666667" transform="scale(1.95 1.95)">
  <animateTransform attributeName="transform" type="scale" begin="-0.03333333333333333s" values="4 4;1 1" keyTimes="0;1" dur="1s" repeatCount="indefinite"></animateTransform>
  <animate attributeName="fill-opacity" keyTimes="0;1" dur="1s" repeatCount="indefinite" values="1;0" begin="-0.03333333333333333s"></animate>
</circle>
</g>
</g><g transform="translate(79.34442802201417,43.76264927546723)">
<g transform="rotate(348.00000000000006)">
<circle cx="0" cy="0" r="0.5" fill="#xxx" fill-opacity="0.03333333333333333" transform="scale(2.05 2.05)">
  <animateTransform attributeName="transform" type="scale" begin="0s" values="4 4;1 1" keyTimes="0;1" dur="1s" repeatCount="indefinite"></animateTransform>
  <animate attributeName="fill-opacity" keyTimes="0;1" dur="1s" repeatCount="indefinite" values="1;0" begin="0s"></animate>
</circle>
</g>
</g></svg>