<?xml version="1.0" encoding="iso-8859-1"?>
<!-- Generator: Adobe Illustrator 19.0.0, SVG Export Plug-In . SVG Version: 6.00 Build 0)  -->
<svg version="1.1" id="Capa_1" xmlns="http://www.w3.org/2000/svg" xmlns:xlink="http://www.w3.org/1999/xlink" x="0px" y="0px"
	 viewBox="0 0 56 56" style="enable-background:new 0 0 56 56;" xml:space="preserve">
<g>
	<path fill="#xxx" d="M25.293,39.293c-0.391,0.391-0.391,1.023,0,1.414C25.488,40.902,25.744,41,26,41s0.512-0.098,0.707-0.293l11.999-11.999
		c0.093-0.092,0.166-0.203,0.217-0.326c0.101-0.244,0.101-0.519,0-0.764c-0.051-0.123-0.125-0.234-0.217-0.327L26.707,15.293
		c-0.391-0.391-1.023-0.391-1.414,0s-0.391,1.023,0,1.414L35.586,27H5c-0.553,0-1,0.447-1,1s0.447,1,1,1h30.586L25.293,39.293z"/>
	<path fill="#xxx" d="M51,0H14c-0.553,0-1,0.447-1,1v21c0,0.553,0.447,1,1,1s1-0.447,1-1V2h35v52H15V34c0-0.553-0.447-1-1-1s-1,0.447-1,1v21
		c0,0.553,0.447,1,1,1h37c0.553,0,1-0.447,1-1V1C52,0.447,51.553,0,51,0z"/>
</g>
</svg>
