<svg xmlns="http://www.w3.org/2000/svg" width="252" height="34" viewBox="0 0 252 34">
    <g fill="none" fill-rule="evenodd">
        <path fill="#0038A7" d="M172.449 5.611h4.52l-.002 26.96h-4.241V14.97l-9.09 17.6h-4.534V5.612h4.247v17.946l9.1-17.946zm41.9 16.295l3.033-10.006 3.096 10.007-6.13-.001zm.69-16.294l-8.75 26.959h4.811l1.852-6.127h8.98l1.961 6.127h4.938l-8.996-26.959h-4.796zm-17.846 0h4.535l-.001 26.959h-4.535V20.783h-8.885v11.788h-4.54l.002-26.96h4.538V16.22h8.886V5.611zm-42.648 0v4.525h-10.68V32.57h-4.539l.001-26.959h15.218zm92.036 26.959l.001-22.396h-6.757l-.001 11.512c0 3.295-.094 5.6-.277 6.904-.183 1.306-.633 2.323-1.338 3.05-.712.73-1.821 1.092-3.337 1.093-.528 0-1.497-.056-2.893-.182V28.34l1.01.019c.951 0 1.59-.151 1.913-.459.33-.307.492-1.06.493-2.265l-.016-4.632V5.613l15.736-.002.001 26.96h-4.535zM132.311 5.61l.002 26.96h-4.243V14.97l-9.09 17.6h-4.534V5.612h4.247v17.946l9.1-17.946h4.519zm-53.133 20.42c-1.161 1.568-2.646 2.346-4.45 2.346-1.81 0-3.3-.784-4.477-2.36-1.172-1.575-1.762-3.89-1.763-6.942 0-3.107.576-5.424 1.716-6.961 1.145-1.538 2.652-2.31 4.524-2.31 1.867 0 3.368.76 4.498 2.28 1.124 1.524 1.689 3.828 1.689 6.917 0 3.125-.58 5.466-1.737 7.03zM74.681 5.153c-1.831-.001-3.441.35-4.843 1.066-1.051.527-2.019 1.336-2.903 2.423a13.164 13.164 0 0 0-2.092 3.696c-.684 1.865-1.026 4.17-1.026 6.918 0 4.287.985 7.658 2.955 10.106 1.972 2.441 4.63 3.665 7.972 3.665 3.294 0 5.93-1.23 7.903-3.684 1.97-2.46 2.96-5.862 2.96-10.219-.002-4.387-.995-7.814-2.982-10.274-1.987-2.468-4.634-3.698-7.944-3.697z"/>
        <path fill="#E52E25" d="M91.303 32.57V5.611h7.275c2.756 0 4.555.139 5.392.408 1.286.402 2.37 1.281 3.237 2.637.868 1.355 1.302 3.107 1.302 5.248 0 1.657-.25 3.05-.753 4.173-.501 1.13-1.135 2.015-1.91 2.661-.767.641-1.552 1.068-2.347 1.274-1.083.259-2.651.39-4.707.39h-2.955V32.57h-4.534zm4.534-22.395v7.645h2.48c1.788 0 2.986-.138 3.587-.42a3.15 3.15 0 0 0 1.418-1.326c.34-.601.512-1.3.512-2.096 0-.978-.241-1.788-.722-2.428-.476-.635-1.088-1.036-1.82-1.193-.543-.126-1.632-.183-3.263-.183h-2.192z"/>
        <path fill="#0038A7" d="M26.937.111L14.082 15.62l12.855 15.507L39.792 15.62 26.937.11zM0 32.613l25.71.001-12.855-15.507L0 32.613zm53.873-.014h-25.71l12.855-15.507 12.855 15.507z"/>
    </g>
</svg>
