<?xml version="1.0" encoding="UTF-8"?>
<svg width="10px" height="10px" viewBox="0 0 10 10" version="1.1" xmlns="http://www.w3.org/2000/svg" xmlns:xlink="http://www.w3.org/1999/xlink">
    <!-- Generator: Sketch 49.1 (51147) - http://www.bohemiancoding.com/sketch -->
    <title>Combined Shape</title>
    <desc>Created with Sketch.</desc>
    <defs></defs>
    <g id="Symbols" stroke="none" stroke-width="1" fill="none" fill-rule="evenodd">
        <g id="Icons/Black/Plus_24px" transform="translate(-4.000000, -4.000000)" fill="#xxx">
            <g id="Plus">
                <path d="M9.71428571,8.28571429 L14,8.28571429 L14,9.71428571 L9.71428571,9.71428571 L9.71428571,14 L8.28571429,14 L8.28571429,9.71428571 L4,9.71428571 L4,8.28571429 L8.28571429,8.28571429 L8.28571429,4 L9.71428571,4 L9.71428571,8.28571429 Z" id="Combined-Shape"></path>
            </g>
        </g>
    </g>
</svg>
